{
  "installed": {
    "client_id": "381404647124-fdk7n1bcoqjigblqsopb0cmmje2jag77.apps.googleusercontent.com",
    "project_id": "testbot-237623",
    "auth_uri": "https://accounts.google.com/o/oauth2/auth",
    "token_uri": "https://oauth2.googleapis.com/token",
    "auth_provider_x509_cert_url": "https://www.googleapis.com/oauth2/v1/certs",
    "client_secret": "ebKCGqCAvNnnp_1RTUE2Uu8V",
    "redirect_uris": [
      "urn:ietf:wg:oauth:2.0:oob",
      "http://localhost"
    ]
  }
}